%YAML 1.1
%TAG !u! tag:unity3d.com,2011:
--- !u!114 &11400000
MonoBehaviour:
  m_ObjectHideFlags: 0
  m_PrefabParentObject: {fileID: 0}
  m_PrefabInternal: {fileID: 0}
  m_GameObject: {fileID: 0}
  m_Enabled: 1
  m_EditorHideFlags: 0
  m_Script: {fileID: 11500000, guid: 77747702d71a77b469f722434d15f550, type: 3}
  m_Name: D1L5
  m_EditorClassIdentifier: 
  weightedEnemySettings:
  - settings: {fileID: 11400000, guid: 39f33a480d98e3c42954666001ca7f5b, type: 2}
    weight: 1
  minSpawnDelay: 0.01
  maxSpawnDelay: 0.1
  isBoss: 0
