%YAML 1.1
%TAG !u! tag:unity3d.com,2011:
--- !u!114 &11400000
MonoBehaviour:
  m_ObjectHideFlags: 0
  m_PrefabParentObject: {fileID: 0}
  m_PrefabInternal: {fileID: 0}
  m_GameObject: {fileID: 0}
  m_Enabled: 1
  m_EditorHideFlags: 0
  m_Script: {fileID: 11500000, guid: 4a8e7b7c396d26a48b5e9c2fdf7066de, type: 3}
  m_Name: Level 5
  m_EditorClassIdentifier: 
  playerStartDelay: 1
  spawnZoneBuffer: 1
  initialPlayerLives: 1
  hyperFlightDuration: 10
  hyperFlightBonus: 2
  isLockable: 1
  isHyper: 1
  levelName: Hyper
  difficulties:
  - difficulty: {fileID: 11400000, guid: 2f7c98a5d1e04d444ab1b6142cb12077, type: 2}
    time: 0
