%YAML 1.1
%TAG !u! tag:unity3d.com,2011:
--- !u!114 &11400000
MonoBehaviour:
  m_ObjectHideFlags: 0
  m_PrefabParentObject: {fileID: 0}
  m_PrefabInternal: {fileID: 0}
  m_GameObject: {fileID: 0}
  m_Enabled: 1
  m_EditorHideFlags: 0
  m_Script: {fileID: 11500000, guid: 77747702d71a77b469f722434d15f550, type: 3}
  m_Name: D4L2
  m_EditorClassIdentifier: 
  weightedEnemySettings:
  - settings: {fileID: 11400000, guid: 2f673090c1105624bb1ff278b58760da, type: 2}
    weight: 10
  - settings: {fileID: 11400000, guid: 4c23fac55d7b5ac4682a19ad7913688a, type: 2}
    weight: 10
  - settings: {fileID: 11400000, guid: 52c530566195f404088a4232e8a66aed, type: 2}
    weight: 5
  - settings: {fileID: 11400000, guid: b7f3985c83034324797b06ace5b294f9, type: 2}
    weight: 5
  - settings: {fileID: 11400000, guid: 5328712a0b1092448903491f36f1b52e, type: 2}
    weight: 2
  - settings: {fileID: 11400000, guid: 4d4446c592d67cb40b7edb7076592513, type: 2}
    weight: 1
  minSpawnDelay: 0.25
  maxSpawnDelay: 0.75
  isBoss: 0
