%YAML 1.1
%TAG !u! tag:unity3d.com,2011:
--- !u!114 &11400000
MonoBehaviour:
  m_ObjectHideFlags: 0
  m_PrefabParentObject: {fileID: 0}
  m_PrefabInternal: {fileID: 0}
  m_GameObject: {fileID: 0}
  m_Enabled: 1
  m_EditorHideFlags: 0
  m_Script: {fileID: 11500000, guid: 939507dfbe4289b429ed71cab56b4753, type: 3}
  m_Name: LinearRed50
  m_EditorClassIdentifier: 
  health: 4
  scale: 1
  color: {r: 0.7941176, g: 0.1518166, b: 0.1518166, a: 1}
  killValue: 10
  mass: 1
  speed: 11
  isBoss: 0
  movementType: 0
  lootProbability: 0.01
