%YAML 1.1
%TAG !u! tag:unity3d.com,2011:
--- !u!114 &11400000
MonoBehaviour:
  m_ObjectHideFlags: 0
  m_PrefabParentObject: {fileID: 0}
  m_PrefabInternal: {fileID: 0}
  m_GameObject: {fileID: 0}
  m_Enabled: 1
  m_EditorHideFlags: 0
  m_Script: {fileID: 11500000, guid: 939507dfbe4289b429ed71cab56b4753, type: 3}
  m_Name: HomingOrange150
  m_EditorClassIdentifier: 
  health: 6
  scale: 1.1
  color: {r: 1, g: 0.8622718, b: 0.28676468, a: 1}
  killValue: 150
  mass: 2
  speed: 4
  isBoss: 0
  movementType: 2
  lootProbability: 0.2
