%YAML 1.1
%TAG !u! tag:unity3d.com,2011:
--- !u!114 &11400000
MonoBehaviour:
  m_ObjectHideFlags: 0
  m_PrefabParentObject: {fileID: 0}
  m_PrefabInternal: {fileID: 0}
  m_GameObject: {fileID: 0}
  m_Enabled: 1
  m_EditorHideFlags: 0
  m_Script: {fileID: 11500000, guid: 939507dfbe4289b429ed71cab56b4753, type: 3}
  m_Name: HomingOrange300
  m_EditorClassIdentifier: 
  health: 10
  scale: 0.8
  color: {r: 1, g: 0.7241379, b: 0, a: 1}
  killValue: 300
  mass: 3
  speed: 2
  isBoss: 0
  movementType: 2
  lootProbability: 0.25
