%YAML 1.1
%TAG !u! tag:unity3d.com,2011:
--- !u!114 &11400000
MonoBehaviour:
  m_ObjectHideFlags: 0
  m_PrefabParentObject: {fileID: 0}
  m_PrefabInternal: {fileID: 0}
  m_GameObject: {fileID: 0}
  m_Enabled: 1
  m_EditorHideFlags: 0
  m_Script: {fileID: 11500000, guid: 939507dfbe4289b429ed71cab56b4753, type: 3}
  m_Name: HomingOrange75
  m_EditorClassIdentifier: 
  health: 2
  scale: 1.5
  color: {r: 0.9939148, g: 1, b: 0.5588235, a: 1}
  killValue: 75
  mass: 1
  speed: 5
  isBoss: 0
  movementType: 2
  lootProbability: 0.1
