%YAML 1.1
%TAG !u! tag:unity3d.com,2011:
--- !u!114 &11400000
MonoBehaviour:
  m_ObjectHideFlags: 0
  m_PrefabParentObject: {fileID: 0}
  m_PrefabInternal: {fileID: 0}
  m_GameObject: {fileID: 0}
  m_Enabled: 1
  m_EditorHideFlags: 0
  m_Script: {fileID: 11500000, guid: 77747702d71a77b469f722434d15f550, type: 3}
  m_Name: D3L4
  m_EditorClassIdentifier: 
  weightedEnemySettings:
  - settings: {fileID: 11400000, guid: ee1574aa886fd44419e7ae0f788eb8f5, type: 2}
    weight: 1
  minSpawnDelay: 0.25
  maxSpawnDelay: 1
  isBoss: 0
