%YAML 1.1
%TAG !u! tag:unity3d.com,2011:
--- !u!114 &11400000
MonoBehaviour:
  m_ObjectHideFlags: 0
  m_PrefabParentObject: {fileID: 0}
  m_PrefabInternal: {fileID: 0}
  m_GameObject: {fileID: 0}
  m_Enabled: 1
  m_EditorHideFlags: 0
  m_Script: {fileID: 11500000, guid: 939507dfbe4289b429ed71cab56b4753, type: 3}
  m_Name: Boss Level4
  m_EditorClassIdentifier: 
  health: 600
  scale: 4.5
  color: {r: 0, g: 1, b: 0.33793116, a: 1}
  killValue: 10000
  mass: 100
  speed: 0.3
  isBoss: 1
  movementType: 0
  lootProbability: 0
