%YAML 1.1
%TAG !u! tag:unity3d.com,2011:
--- !u!114 &11400000
MonoBehaviour:
  m_ObjectHideFlags: 0
  m_PrefabParentObject: {fileID: 0}
  m_PrefabInternal: {fileID: 0}
  m_GameObject: {fileID: 0}
  m_Enabled: 1
  m_EditorHideFlags: 0
  m_Script: {fileID: 11500000, guid: 77747702d71a77b469f722434d15f550, type: 3}
  m_Name: D6L1
  m_EditorClassIdentifier: 
  weightedEnemySettings:
  - settings: {fileID: 11400000, guid: af53dd6c287e98446abd9e007135a200, type: 2}
    weight: 6
  - settings: {fileID: 11400000, guid: 0967b2c5cf0e6b14b8642f2e882a937a, type: 2}
    weight: 4
  - settings: {fileID: 11400000, guid: b8a0ab938d70bbd4783271737252d19c, type: 2}
    weight: 2
  - settings: {fileID: 11400000, guid: 39f33a480d98e3c42954666001ca7f5b, type: 2}
    weight: 10
  - settings: {fileID: 11400000, guid: 7d9fe1116bbef3444be7cb06f0de705d, type: 2}
    weight: 10
  - settings: {fileID: 11400000, guid: 126c8be92567bb64bae4fdff6a20f85d, type: 2}
    weight: 10
  - settings: {fileID: 11400000, guid: 2235597239848c047bd451272527c192, type: 2}
    weight: 2
  minSpawnDelay: 0.25
  maxSpawnDelay: 0.25
  isBoss: 0
