%YAML 1.1
%TAG !u! tag:unity3d.com,2011:
--- !u!114 &11400000
MonoBehaviour:
  m_ObjectHideFlags: 0
  m_PrefabParentObject: {fileID: 0}
  m_PrefabInternal: {fileID: 0}
  m_GameObject: {fileID: 0}
  m_Enabled: 0
  m_EditorHideFlags: 0
  m_Script: {fileID: 11500000, guid: 4a8e7b7c396d26a48b5e9c2fdf7066de, type: 3}
  m_Name: Level 1
  m_EditorClassIdentifier: 
  playerStartDelay: 1
  spawnZoneBuffer: 1
  initialPlayerLives: 3
  hyperFlightDuration: 10
  hyperFlightBonus: 2
  isLockable: 0
  isHyper: 0
  levelName: Level 1
  difficulties:
  - difficulty: {fileID: 11400000, guid: 800fbb51cecfa4e4897620d2f9c8aaf2, type: 2}
    time: 5
  - difficulty: {fileID: 11400000, guid: 505afe6dd9750334bbbeb8aace8dc6a8, type: 2}
    time: 10
  - difficulty: {fileID: 11400000, guid: 272f3782319b2514c929de7a089d99d5, type: 2}
    time: 20
  - difficulty: {fileID: 11400000, guid: 82950864a7439e24ca3fff280a4986b3, type: 2}
    time: 25
  - difficulty: {fileID: 11400000, guid: a0b92a653be15f949a5a712aa72fe07a, type: 2}
    time: 50
  - difficulty: {fileID: 11400000, guid: d52a8445688b2694ebd725017d9e0325, type: 2}
    time: 70
  - difficulty: {fileID: 11400000, guid: 51dcdb7064370274e81147ec54063a12, type: 2}
    time: 100
